{
   "Workflow": 
      [{
         "Node_1_IcclimProcessing":{
            "out_file": null,
            "slice_mode": "JJA",
            "user_indice": null,
            "indice_name": "SU",
            "in_files": [["/Users/xavier/Projets/data/usecase/tasmax_day_CSIRO-Mk3L-1-2_historical_r1i2p1_18510101_20051231.nc"],
               ["/Users/xavier/Projets/data/usecase/tasmax_day_CSIRO-Mk3L-1-2_historical_r2i2p1_18510101_20051231.nc"],
               ["/Users/xavier/Projets/data/usecase/tasmax_day_CSIRO-Mk3L-1-2_historical_r3i2p1_18510101_20051231.nc"]],
            "var_name": "tasmax"
          },

         "Node_5_B2DROP":{
            "username": "7f64f56c-a286-48fe-bf74-96567edef0d2",
            "password": "wWEqq-Qondr-7ZmqZ-ZRKrs-idDHJ"
         }
       }],

   "PE":{"Block_1":{"Node_1":["IcclimProcessing()"],
         "Node_2":["AverageData()"]},
         "Block_2":{"Node_3":["CombineScenario()"],
         "Node_4":["PlotMultipleScenario()"],
         "Node_5":["B2DROP()"]}
      }
}
