{
    "SU_workflow": [
       {
          "SU_calculation_r1i2p1": {
             "out_unit": "days",
             "out_file": null,
             "slice_mode": "JJA",
             "indice_name": "SU",
             "in_files": "/Users/xavier/Projets/data/usecase/tasmax_day_CSIRO-Mk3L-1-2_historical_r1i2p1_18510101_20051231.nc",
             "var_name": "tasmax"
          },
          "SU_calculation_r2i2p1": {
             "out_unit": "days",
             "out_file": null,
             "slice_mode": "JJA",
             "indice_name": "SU",
             "in_files": "/Users/xavier/Projets/data/usecase/tasmax_day_CSIRO-Mk3L-1-2_historical_r2i2p1_18510101_20051231.nc",
             "var_name": "tasmax"
          },
          "SU_calculation_r3i2p1": {
             "out_unit": "days",
             "out_file": null,
             "slice_mode": "JJA",
             "indice_name": "SU",
             "in_files": "/Users/xavier/Projets/data/usecase/tasmax_day_CSIRO-Mk3L-1-2_historical_r3i2p1_18510101_20051231.nc",
             "var_name": "tasmax"
          }
       }
    ]
 }